<mxfile host="app.diagrams.net" modified="2023-09-23T21:04:52.236Z" agent="Mozilla/5.0 (X11; Ubuntu; Linux x86_64; rv:109.0) Gecko/20100101 Firefox/117.0" etag="L7bNQgRCyBpYesdkD5hd" version="21.8.1" type="device">
  <diagram name="Page-1" id="ngcDNCPYizk4hCRfq4j8">
    <mxGraphModel dx="1195" dy="663" grid="1" gridSize="10" guides="1" tooltips="1" connect="1" arrows="1" fold="1" page="1" pageScale="1" pageWidth="850" pageHeight="1100" math="0" shadow="0">
      <root>
        <mxCell id="0" />
        <mxCell id="1" parent="0" />
        <mxCell id="e_3-4Pjw18igO35A0O9H-2" value="&lt;font color=&quot;#666666&quot;&gt;&amp;lt;namespace1&amp;gt;&lt;/font&gt;/&amp;lt;project1&amp;gt;" style="rounded=1;whiteSpace=wrap;html=1;" vertex="1" parent="1">
          <mxGeometry x="200" y="40" width="160" height="80" as="geometry" />
        </mxCell>
        <mxCell id="e_3-4Pjw18igO35A0O9H-3" value="&lt;div&gt;&lt;font color=&quot;#666666&quot;&gt;&amp;lt;namespace3&amp;gt;&lt;/font&gt;/&amp;lt;project6&amp;gt;&lt;/div&gt;" style="rounded=1;whiteSpace=wrap;html=1;" vertex="1" parent="1">
          <mxGeometry x="80" y="200" width="160" height="80" as="geometry" />
        </mxCell>
        <mxCell id="e_3-4Pjw18igO35A0O9H-4" value="&lt;div&gt;&lt;font color=&quot;#666666&quot;&gt;&amp;lt;namespace2&amp;gt;&lt;/font&gt;/&amp;lt;project3&lt;/div&gt;&lt;div&gt;&amp;gt;&lt;/div&gt;" style="rounded=1;whiteSpace=wrap;html=1;" vertex="1" parent="1">
          <mxGeometry x="640" y="200" width="160" height="80" as="geometry" />
        </mxCell>
        <mxCell id="e_3-4Pjw18igO35A0O9H-5" value="&lt;font color=&quot;#666666&quot;&gt;&amp;lt;namespace3&amp;gt;&lt;/font&gt;/&amp;lt;project5&amp;gt;" style="rounded=1;whiteSpace=wrap;html=1;" vertex="1" parent="1">
          <mxGeometry x="200" y="360" width="160" height="80" as="geometry" />
        </mxCell>
        <mxCell id="e_3-4Pjw18igO35A0O9H-6" value="&lt;font color=&quot;#666666&quot;&gt;&amp;lt;&lt;/font&gt;&lt;font color=&quot;#666666&quot;&gt;namespace2&lt;/font&gt;&lt;font color=&quot;#666666&quot;&gt;&amp;gt;&lt;/font&gt;/&amp;lt;project4&amp;gt;" style="rounded=1;whiteSpace=wrap;html=1;" vertex="1" parent="1">
          <mxGeometry x="520" y="360" width="160" height="80" as="geometry" />
        </mxCell>
        <mxCell id="e_3-4Pjw18igO35A0O9H-7" value="&lt;font color=&quot;#666666&quot;&gt;&amp;lt;namespace1&amp;gt;&lt;/font&gt;/&amp;lt;project2&amp;gt;" style="rounded=1;whiteSpace=wrap;html=1;" vertex="1" parent="1">
          <mxGeometry x="520" y="40" width="160" height="80" as="geometry" />
        </mxCell>
        <mxCell id="e_3-4Pjw18igO35A0O9H-10" value="" style="endArrow=classic;html=1;rounded=0;exitX=0.743;exitY=0.015;exitDx=0;exitDy=0;exitPerimeter=0;" edge="1" parent="1" source="e_3-4Pjw18igO35A0O9H-27">
          <mxGeometry width="50" height="50" relative="1" as="geometry">
            <mxPoint x="480.00000000000006" y="200" as="sourcePoint" />
            <mxPoint x="560.08" y="120" as="targetPoint" />
          </mxGeometry>
        </mxCell>
        <mxCell id="e_3-4Pjw18igO35A0O9H-12" value="" style="endArrow=classic;html=1;rounded=0;exitX=0.5;exitY=1;exitDx=0;exitDy=0;entryX=0.792;entryY=0.019;entryDx=0;entryDy=0;entryPerimeter=0;" edge="1" parent="1" target="e_3-4Pjw18igO35A0O9H-27">
          <mxGeometry width="50" height="50" relative="1" as="geometry">
            <mxPoint x="570.08" y="120" as="sourcePoint" />
            <mxPoint x="488.1600000000001" y="199.44000000000005" as="targetPoint" />
          </mxGeometry>
        </mxCell>
        <mxCell id="e_3-4Pjw18igO35A0O9H-13" value="" style="endArrow=classic;html=1;rounded=0;exitX=0.006;exitY=0.373;exitDx=0;exitDy=0;exitPerimeter=0;entryX=0.996;entryY=0.388;entryDx=0;entryDy=0;entryPerimeter=0;" edge="1" parent="1" source="e_3-4Pjw18igO35A0O9H-27" target="e_3-4Pjw18igO35A0O9H-3">
          <mxGeometry width="50" height="50" relative="1" as="geometry">
            <mxPoint x="358.4000000000001" y="230.64" as="sourcePoint" />
            <mxPoint x="250" y="250" as="targetPoint" />
          </mxGeometry>
        </mxCell>
        <mxCell id="e_3-4Pjw18igO35A0O9H-14" value="" style="endArrow=classic;html=1;rounded=0;exitX=1;exitY=0.5;exitDx=0;exitDy=0;entryX=0;entryY=0.5;entryDx=0;entryDy=0;" edge="1" parent="1">
          <mxGeometry width="50" height="50" relative="1" as="geometry">
            <mxPoint x="239.9999999999999" y="239.88" as="sourcePoint" />
            <mxPoint x="360" y="239.88" as="targetPoint" />
          </mxGeometry>
        </mxCell>
        <mxCell id="e_3-4Pjw18igO35A0O9H-17" value="" style="endArrow=classic;html=1;rounded=0;exitX=-0.01;exitY=0.383;exitDx=0;exitDy=0;exitPerimeter=0;entryX=0;entryY=0.375;entryDx=0;entryDy=0;entryPerimeter=0;" edge="1" parent="1" target="e_3-4Pjw18igO35A0O9H-4">
          <mxGeometry width="50" height="50" relative="1" as="geometry">
            <mxPoint x="519" y="230" as="sourcePoint" />
            <mxPoint x="638" y="230" as="targetPoint" />
          </mxGeometry>
        </mxCell>
        <mxCell id="e_3-4Pjw18igO35A0O9H-18" value="" style="endArrow=classic;html=1;rounded=0;exitX=1;exitY=0.5;exitDx=0;exitDy=0;entryX=0;entryY=0.5;entryDx=0;entryDy=0;" edge="1" parent="1">
          <mxGeometry width="50" height="50" relative="1" as="geometry">
            <mxPoint x="640" y="238.88" as="sourcePoint" />
            <mxPoint x="519.9999999999999" y="238.88" as="targetPoint" />
          </mxGeometry>
        </mxCell>
        <mxCell id="e_3-4Pjw18igO35A0O9H-19" value="" style="endArrow=classic;html=1;rounded=0;exitX=0.937;exitY=0;exitDx=0;exitDy=0;exitPerimeter=0;" edge="1" parent="1">
          <mxGeometry width="50" height="50" relative="1" as="geometry">
            <mxPoint x="320" y="360" as="sourcePoint" />
            <mxPoint x="400" y="280" as="targetPoint" />
          </mxGeometry>
        </mxCell>
        <mxCell id="e_3-4Pjw18igO35A0O9H-20" value="" style="endArrow=classic;html=1;rounded=0;exitX=0.5;exitY=1;exitDx=0;exitDy=0;entryX=0.795;entryY=0.004;entryDx=0;entryDy=0;entryPerimeter=0;" edge="1" parent="1" target="e_3-4Pjw18igO35A0O9H-5">
          <mxGeometry width="50" height="50" relative="1" as="geometry">
            <mxPoint x="410" y="280" as="sourcePoint" />
            <mxPoint x="326" y="362" as="targetPoint" />
          </mxGeometry>
        </mxCell>
        <mxCell id="e_3-4Pjw18igO35A0O9H-23" value="" style="endArrow=classic;html=1;rounded=0;exitX=0.264;exitY=0.022;exitDx=0;exitDy=0;entryX=0.683;entryY=1.004;entryDx=0;entryDy=0;entryPerimeter=0;exitPerimeter=0;" edge="1" parent="1" source="e_3-4Pjw18igO35A0O9H-27" target="e_3-4Pjw18igO35A0O9H-2">
          <mxGeometry width="50" height="50" relative="1" as="geometry">
            <mxPoint x="400" y="200" as="sourcePoint" />
            <mxPoint x="370.08000000000004" y="110" as="targetPoint" />
          </mxGeometry>
        </mxCell>
        <mxCell id="e_3-4Pjw18igO35A0O9H-24" value="" style="endArrow=classic;html=1;rounded=0;exitX=0.75;exitY=1;exitDx=0;exitDy=0;entryX=0.313;entryY=-0.001;entryDx=0;entryDy=0;entryPerimeter=0;" edge="1" parent="1" source="e_3-4Pjw18igO35A0O9H-2">
          <mxGeometry width="50" height="50" relative="1" as="geometry">
            <mxPoint x="481.0400000000001" y="120" as="sourcePoint" />
            <mxPoint x="410.08000000000015" y="199.92000000000007" as="targetPoint" />
          </mxGeometry>
        </mxCell>
        <mxCell id="e_3-4Pjw18igO35A0O9H-25" value="" style="endArrow=classic;html=1;rounded=0;exitX=0.25;exitY=0;exitDx=0;exitDy=0;entryX=0.69;entryY=0.991;entryDx=0;entryDy=0;entryPerimeter=0;" edge="1" parent="1" target="e_3-4Pjw18igO35A0O9H-27">
          <mxGeometry width="50" height="50" relative="1" as="geometry">
            <mxPoint x="561" y="360" as="sourcePoint" />
            <mxPoint x="470" y="280" as="targetPoint" />
          </mxGeometry>
        </mxCell>
        <mxCell id="e_3-4Pjw18igO35A0O9H-26" value="" style="endArrow=classic;html=1;rounded=0;exitX=0.745;exitY=0.974;exitDx=0;exitDy=0;entryX=0.313;entryY=-0.001;entryDx=0;entryDy=0;entryPerimeter=0;exitPerimeter=0;" edge="1" parent="1" source="e_3-4Pjw18igO35A0O9H-27">
          <mxGeometry width="50" height="50" relative="1" as="geometry">
            <mxPoint x="481" y="280" as="sourcePoint" />
            <mxPoint x="571" y="360" as="targetPoint" />
          </mxGeometry>
        </mxCell>
        <mxCell id="e_3-4Pjw18igO35A0O9H-27" value="project with artifacts" style="strokeWidth=1;html=1;shape=mxgraph.flowchart.database;whiteSpace=wrap;" vertex="1" parent="1">
          <mxGeometry x="360" y="200" width="160" height="80" as="geometry" />
        </mxCell>
      </root>
    </mxGraphModel>
  </diagram>
</mxfile>
